{
  "$schema": "../node_modules/@angular-devkit/schematics/collection-schema.json",
  "schematics": {
    "ng-add": {
      "description": "Installs alaris-components library",
      "factory": "./ng-add/index"
    }
  }
}
